accumulator/simulation/qsim/accumulator.msim.vcd
$comment
	File created using the following command:
		vcd file accumulator.msim.vcd -direction
$end
$date
	Thu Sep 18 22:49:12 2025
$end
$version
	ModelSim Version 10.1d
$end
$timescale
	1ps
$end
$scope module accumulator_vlg_vec_tst $end
$var reg 1 ! clk $end
$var reg 1 " rst $end
$var reg 1 # w_en $end
$var wire 1 $ acc_out [31] $end
$var wire 1 % acc_out [30] $end
$var wire 1 & acc_out [29] $end
$var wire 1 ' acc_out [28] $end
$var wire 1 ( acc_out [27] $end
$var wire 1 ) acc_out [26] $end
$var wire 1 * acc_out [25] $end
$var wire 1 + acc_out [24] $end
$var wire 1 , acc_out [23] $end
$var wire 1 - acc_out [22] $end
$var wire 1 . acc_out [21] $end
$var wire 1 / acc_out [20] $end
$var wire 1 0 acc_out [19] $end
$var wire 1 1 acc_out [18] $end
$var wire 1 2 acc_out [17] $end
$var wire 1 3 acc_out [16] $end
$var wire 1 4 acc_out [15] $end
$var wire 1 5 acc_out [14] $end
$var wire 1 6 acc_out [13] $end
$var wire 1 7 acc_out [12] $end
$var wire 1 8 acc_out [11] $end
$var wire 1 9 acc_out [10] $end
$var wire 1 : acc_out [9] $end
$var wire 1 ; acc_out [8] $end
$var wire 1 < acc_out [7] $end
$var wire 1 = acc_out [6] $end
$var wire 1 > acc_out [5] $end
$var wire 1 ? acc_out [4] $end
$var wire 1 @ acc_out [3] $end
$var wire 1 A acc_out [2] $end
$var wire 1 B acc_out [1] $end
$var wire 1 C acc_out [0] $end
$var wire 1 D sampler $end
$scope module i1 $end
$var wire 1 E gnd $end
$var wire 1 F vcc $end
$var wire 1 G unknown $end
$var tri1 1 H devclrn $end
$var tri1 1 I devpor $end
$var tri1 1 J devoe $end
$var wire 1 K acc_out[0]~output_o $end
$var wire 1 L acc_out[1]~output_o $end
$var wire 1 M acc_out[2]~output_o $end
$var wire 1 N acc_out[3]~output_o $end
$var wire 1 O acc_out[4]~output_o $end
$var wire 1 P acc_out[5]~output_o $end
$var wire 1 Q acc_out[6]~output_o $end
$var wire 1 R acc_out[7]~output_o $end
$var wire 1 S acc_out[8]~output_o $end
$var wire 1 T acc_out[9]~output_o $end
$var wire 1 U acc_out[10]~output_o $end
$var wire 1 V acc_out[11]~output_o $end
$var wire 1 W acc_out[12]~output_o $end
$var wire 1 X acc_out[13]~output_o $end
$var wire 1 Y acc_out[14]~output_o $end
$var wire 1 Z acc_out[15]~output_o $end
$var wire 1 [ acc_out[16]~output_o $end
$var wire 1 \ acc_out[17]~output_o $end
$var wire 1 ] acc_out[18]~output_o $end
$var wire 1 ^ acc_out[19]~output_o $end
$var wire 1 _ acc_out[20]~output_o $end
$var wire 1 ` acc_out[21]~output_o $end
$var wire 1 a acc_out[22]~output_o $end
$var wire 1 b acc_out[23]~output_o $end
$var wire 1 c acc_out[24]~output_o $end
$var wire 1 d acc_out[25]~output_o $end
$var wire 1 e acc_out[26]~output_o $end
$var wire 1 f acc_out[27]~output_o $end
$var wire 1 g acc_out[28]~output_o $end
$var wire 1 h acc_out[29]~output_o $end
$var wire 1 i acc_out[30]~output_o $end
$var wire 1 j acc_out[31]~output_o $end
$var wire 1 k clk~input_o $end
$var wire 1 l clk~inputclkctrl_outclk $end
$var wire 1 m acc_outs[0]~32_combout $end
$var wire 1 n rst~input_o $end
$var wire 1 o w_en~input_o $end
$var wire 1 p acc_outs[0]~34_combout $end
$var wire 1 q acc_outs[0]~33 $end
$var wire 1 r acc_outs[1]~35_combout $end
$var wire 1 s acc_outs[1]~36 $end
$var wire 1 t acc_outs[2]~37_combout $end
$var wire 1 u acc_outs[2]~38 $end
$var wire 1 v acc_outs[3]~39_combout $end
$var wire 1 w acc_outs[3]~40 $end
$var wire 1 x acc_outs[4]~41_combout $end
$var wire 1 y acc_outs[4]~42 $end
$var wire 1 z acc_outs[5]~43_combout $end
$var wire 1 { acc_outs[5]~44 $end
$var wire 1 | acc_outs[6]~45_combout $end
$var wire 1 } acc_outs[6]~46 $end
$var wire 1 ~ acc_outs[7]~47_combout $end
$var wire 1 !! acc_outs[7]~48 $end
$var wire 1 "! acc_outs[8]~49_combout $end
$var wire 1 #! acc_outs[8]~50 $end
$var wire 1 $! acc_outs[9]~51_combout $end
$var wire 1 %! acc_outs[9]~52 $end
$var wire 1 &! acc_outs[10]~53_combout $end
$var wire 1 '! acc_outs[10]~54 $end
$var wire 1 (! acc_outs[11]~55_combout $end
$var wire 1 )! acc_outs[11]~56 $end
$var wire 1 *! acc_outs[12]~57_combout $end
$var wire 1 +! acc_outs[12]~58 $end
$var wire 1 ,! acc_outs[13]~59_combout $end
$var wire 1 -! acc_outs[13]~60 $end
$var wire 1 .! acc_outs[14]~61_combout $end
$var wire 1 /! acc_outs[14]~62 $end
$var wire 1 0! acc_outs[15]~63_combout $end
$var wire 1 1! acc_outs[15]~64 $end
$var wire 1 2! acc_outs[16]~65_combout $end
$var wire 1 3! acc_outs[16]~66 $end
$var wire 1 4! acc_outs[17]~67_combout $end
$var wire 1 5! acc_outs[17]~68 $end
$var wire 1 6! acc_outs[18]~69_combout $end
$var wire 1 7! acc_outs[18]~70 $end
$var wire 1 8! acc_outs[19]~71_combout $end
$var wire 1 9! acc_outs[19]~72 $end
$var wire 1 :! acc_outs[20]~73_combout $end
$var wire 1 ;! acc_outs[20]~74 $end
$var wire 1 <! acc_outs[21]~75_combout $end
$var wire 1 =! acc_outs[21]~76 $end
$var wire 1 >! acc_outs[22]~77_combout $end
$var wire 1 ?! acc_outs[22]~78 $end
$var wire 1 @! acc_outs[23]~79_combout $end
$var wire 1 A! acc_outs[23]~80 $end
$var wire 1 B! acc_outs[24]~81_combout $end
$var wire 1 C! acc_outs[24]~82 $end
$var wire 1 D! acc_outs[25]~83_combout $end
$var wire 1 E! acc_outs[25]~84 $end
$var wire 1 F! acc_outs[26]~85_combout $end
$var wire 1 G! acc_outs[26]~86 $end
$var wire 1 H! acc_outs[27]~87_combout $end
$var wire 1 I! acc_outs[27]~88 $end
$var wire 1 J! acc_outs[28]~89_combout $end
$var wire 1 K! acc_outs[28]~90 $end
$var wire 1 L! acc_outs[29]~91_combout $end
$var wire 1 M! acc_outs[29]~92 $end
$var wire 1 N! acc_outs[30]~93_combout $end
$var wire 1 O! acc_outs[30]~94 $end
$var wire 1 P! acc_outs[31]~95_combout $end
$var wire 1 Q! acc_outs [31] $end
$var wire 1 R! acc_outs [30] $end
$var wire 1 S! acc_outs [29] $end
$var wire 1 T! acc_outs [28] $end
$var wire 1 U! acc_outs [27] $end
$var wire 1 V! acc_outs [26] $end
$var wire 1 W! acc_outs [25] $end
$var wire 1 X! acc_outs [24] $end
$var wire 1 Y! acc_outs [23] $end
$var wire 1 Z! acc_outs [22] $end
$var wire 1 [! acc_outs [21] $end
$var wire 1 \! acc_outs [20] $end
$var wire 1 ]! acc_outs [19] $end
$var wire 1 ^! acc_outs [18] $end
$var wire 1 _! acc_outs [17] $end
$var wire 1 `! acc_outs [16] $end
$var wire 1 a! acc_outs [15] $end
$var wire 1 b! acc_outs [14] $end
$var wire 1 c! acc_outs [13] $end
$var wire 1 d! acc_outs [12] $end
$var wire 1 e! acc_outs [11] $end
$var wire 1 f! acc_outs [10] $end
$var wire 1 g! acc_outs [9] $end
$var wire 1 h! acc_outs [8] $end
$var wire 1 i! acc_outs [7] $end
$var wire 1 j! acc_outs [6] $end
$var wire 1 k! acc_outs [5] $end
$var wire 1 l! acc_outs [4] $end
$var wire 1 m! acc_outs [3] $end
$var wire 1 n! acc_outs [2] $end
$var wire 1 o! acc_outs [1] $end
$var wire 1 p! acc_outs [0] $end
$upscope $end
$upscope $end
$enddefinitions $end
#0
$dumpvars
0!
1"
1#
0C
0B
0A
0@
0?
0>
0=
0<
0;
0:
09
08
07
06
05
04
03
02
01
00
0/
0.
0-
0,
0+
0*
0)
0(
0'
0&
0%
0$
xD
0E
1F
xG
1H
1I
1J
0K
0L
0M
0N
0O
0P
0Q
0R
0S
0T
0U
0V
0W
0X
0Y
0Z
0[
0\
0]
0^
0_
0`
0a
0b
0c
0d
0e
0f
0g
0h
0i
0j
0k
0l
1m
1n
1o
1p
0q
0r
1s
0t
0u
0v
1w
0x
0y
0z
1{
0|
0}
0~
1!!
0"!
0#!
0$!
1%!
0&!
0'!
0(!
1)!
0*!
0+!
0,!
1-!
0.!
0/!
00!
11!
02!
03!
04!
15!
06!
07!
08!
19!
0:!
0;!
0<!
1=!
0>!
0?!
0@!
1A!
0B!
0C!
0D!
1E!
0F!
0G!
0H!
1I!
0J!
0K!
0L!
1M!
0N!
0O!
0P!
0p!
0o!
0n!
0m!
0l!
0k!
0j!
0i!
0h!
0g!
0f!
0e!
0d!
0c!
0b!
0a!
0`!
0_!
0^!
0]!
0\!
0[!
0Z!
0Y!
0X!
0W!
0V!
0U!
0T!
0S!
0R!
0Q!
$end
#5000
1!
1k
1l
0D
#10000
0"
0!
0n
0k
0l
1D
#15000
1!
1k
1l
0D
1p!
1q
0m
1K
1C
1r
#20000
0!
0k
0l
1D
#25000
1!
1k
1l
0D
1o!
0p!
0s
0r
0q
1m
1L
0K
1B
0C
1t
1s
1r
0t
#30000
0!
0k
0l
1D
#35000
1!
1k
1l
0D
1p!
1q
0m
1K
1C
0s
0r
1t
#40000
0!
0k
0l
1D
#45000
1!
1k
1l
0D
1n!
0o!
0p!
1u
0t
1s
1r
0q
1m
1M
0L
0K
1A
0B
0C
1v
0u
1t
0r
0v
#50000
0!
0k
0l
1D
#55000
1!
1k
1l
0D
1p!
1q
0m
1K
1C
1r
#60000
0!
0k
0l
1D
#65000
1!
1k
1l
0D
1o!
0p!
0s
0r
0q
1m
1L
0K
1B
0C
1u
0t
1s
1r
1v
0u
1t
0v
#70000
0!
0k
0l
1D
#75000
1!
1k
1l
0D
1p!
1q
0m
1K
1C
0s
0r
1u
0t
1v
#80000
0!
0k
0l
1D
#85000
1!
1k
1l
0D
1m!
0n!
0o!
0p!
0w
0v
0u
1t
1s
1r
0q
1m
1N
0M
0L
0K
1@
0A
0B
0C
1x
1w
1v
0t
0r
0x
#90000
0!
0k
0l
1D
#95000
1!
1k
1l
0D
1p!
1q
0m
1K
1C
1r
#100000
0!
0k
0l
1D
#105000
1!
1k
1l
0D
1o!
0p!
0s
0r
0q
1m
1L
0K
1B
0C
1t
1s
1r
0t
#110000
0!
0k
0l
1D
#115000
1!
1k
1l
0D
1p!
1q
0m
1K
1C
0s
0r
1t
#120000
0!
0k
0l
1D
#125000
1!
1k
1l
0D
1n!
0o!
0p!
1u
0t
1s
1r
0q
1m
1M
0L
0K
1A
0B
0C
0w
0v
0u
1t
0r
1x
1w
1v
0x
#130000
0!
0k
0l
1D
#135000
1!
1k
1l
0D
1p!
1q
0m
1K
1C
1r
#140000
0!
0k
0l
1D
#145000
1!
1k
1l
0D
1o!
0p!
0s
0r
0q
1m
1L
0K
1B
0C
1u
0t
1s
1r
0w
0v
0u
1t
1x
1w
1v
0x
#150000
0!
0k
0l
1D
#155000
1!
1k
1l
0D
1p!
1q
0m
1K
1C
0s
0r
1u
0t
0w
0v
1x
#160000
0!
0k
0l
1D
#165000
1!
1k
1l
0D
1l!
0m!
0n!
0o!
0p!
1y
0x
1w
1v
0u
1t
1s
1r
0q
1m
1O
0N
0M
0L
0K
1?
0@
0A
0B
0C
1z
0y
1x
0v
0t
0r
0z
#170000
0!
0k
0l
1D
#175000
1!
1k
1l
0D
1p!
1q
0m
1K
1C
1r
#180000
0!
0k
0l
1D
#185000
1!
1k
1l
0D
1o!
0p!
0s
0r
0q
1m
1L
0K
1B
0C
1t
1s
1r
0t
#190000
0!
0k
0l
1D
#195000
1!
1k
1l
0D
1p!
1q
0m
1K
1C
0s
0r
1t
#200000
0!
0k
0l
1D
#205000
1!
1k
1l
0D
1n!
0o!
0p!
1u
0t
1s
1r
0q
1m
1M
0L
0K
1A
0B
0C
1v
0u
1t
0r
0v
#210000
0!
0k
0l
1D
#215000
1!
1k
1l
0D
1p!
1q
0m
1K
1C
1r
#220000
0!
0k
0l
1D
#225000
1!
1k
1l
0D
1o!
0p!
0s
0r
0q
1m
1L
0K
1B
0C
1u
0t
1s
1r
1v
0u
1t
0v
#230000
0!
0k
0l
1D
#235000
1!
1k
1l
0D
1p!
1q
0m
1K
1C
0s
0r
1u
0t
1v
#240000
0!
0k
0l
1D
#245000
1!
1k
1l
0D
1m!
0n!
0o!
0p!
0w
0v
0u
1t
1s
1r
0q
1m
1N
0M
0L
0K
1@
0A
0B
0C
1y
0x
1w
1v
0t
0r
1z
0y
1x
0z
#250000
0!
0k
0l
1D
#255000
1!
1k
1l
0D
1p!
1q
0m
1K
1C
1r
#260000
0!
0k
0l
1D
#265000
1!
1k
1l
0D
1o!
0p!
0s
0r
0q
1m
1L
0K
1B
0C
1t
1s
1r
0t
#270000
0!
0k
0l
1D
#275000
1!
1k
1l
0D
1p!
1q
0m
1K
1C
0s
0r
1t
#280000
0!
0k
0l
1D
#285000
1!
1k
1l
0D
1n!
0o!
0p!
1u
0t
1s
1r
0q
1m
1M
0L
0K
1A
0B
0C
0w
0v
0u
1t
0r
1y
0x
1w
1v
1z
0y
1x
0z
#290000
0!
0k
0l
1D
#295000
1!
1k
1l
0D
1p!
1q
0m
1K
1C
1r
#300000
0!
0k
0l
1D
#305000
1!
1k
1l
0D
1o!
0p!
0s
0r
0q
1m
1L
0K
1B
0C
1u
0t
1s
1r
0w
0v
0u
1t
1y
0x
1w
1v
1z
0y
1x
0z
#310000
0!
0k
0l
1D
#315000
1!
1k
1l
0D
1p!
1q
0m
1K
1C
0s
0r
1u
0t
0w
0v
1y
0x
1z
#320000
0!
0k
0l
1D
#325000
1!
1k
1l
0D
1k!
0l!
0m!
0n!
0o!
0p!
0{
0z
0y
1x
1w
1v
0u
1t
1s
1r
0q
1m
1P
0O
0N
0M
0L
0K
1>
0?
0@
0A
0B
0C
1|
1{
1z
0x
0v
0t
0r
0|
#330000
0!
0k
0l
1D
#335000
1!
1k
1l
0D
1p!
1q
0m
1K
1C
1r
#340000
0!
0k
0l
1D
#345000
1!
1k
1l
0D
1o!
0p!
0s
0r
0q
1m
1L
0K
1B
0C
1t
1s
1r
0t
#350000
0!
0k
0l
1D
#355000
1!
1k
1l
0D
1p!
1q
0m
1K
1C
0s
0r
1t
#360000
0!
0k
0l
1D
#365000
1!
1k
1l
0D
1n!
0o!
0p!
1u
0t
1s
1r
0q
1m
1M
0L
0K
1A
0B
0C
1v
0u
1t
0r
0v
#370000
0!
0k
0l
1D
#375000
1!
1k
1l
0D
1p!
1q
0m
1K
1C
1r
#380000
0!
0k
0l
1D
#385000
1!
1k
1l
0D
1o!
0p!
0s
0r
0q
1m
1L
0K
1B
0C
1u
0t
1s
1r
1v
0u
1t
0v
#390000
0!
0k
0l
1D
#395000
1!
1k
1l
0D
1p!
1q
0m
1K
1C
0s
0r
1u
0t
1v
#400000
0!
0k
0l
1D
#405000
1!
1k
1l
0D
1m!
0n!
0o!
0p!
0w
0v
0u
1t
1s
1r
0q
1m
1N
0M
0L
0K
1@
0A
0B
0C
1x
1w
1v
0t
0r
0x
#410000
0!
0k
0l
1D
#415000
1!
1k
1l
0D
1p!
1q
0m
1K
1C
1r
#420000
0!
0k
0l
1D
#425000
1!
1k
1l
0D
1o!
0p!
0s
0r
0q
1m
1L
0K
1B
0C
1t
1s
1r
0t
#430000
0!
0k
0l
1D
#435000
1!
1k
1l
0D
1p!
1q
0m
1K
1C
0s
0r
1t
#440000
0!
0k
0l
1D
#445000
1!
1k
1l
0D
1n!
0o!
0p!
1u
0t
1s
1r
0q
1m
1M
0L
0K
1A
0B
0C
0w
0v
0u
1t
0r
1x
1w
1v
0x
#450000
0!
0k
0l
1D
#455000
1!
1k
1l
0D
1p!
1q
0m
1K
1C
1r
#460000
0!
0k
0l
1D
#465000
1!
1k
1l
0D
1o!
0p!
0s
0r
0q
1m
1L
0K
1B
0C
1u
0t
1s
1r
0w
0v
0u
1t
1x
1w
1v
0x
#470000
0!
0k
0l
1D
#475000
1!
1k
1l
0D
1p!
1q
0m
1K
1C
0s
0r
1u
0t
0w
0v
1x
#480000
0!
0k
0l
1D
#485000
1!
1k
1l
0D
1l!
0m!
0n!
0o!
0p!
1y
0x
1w
1v
0u
1t
1s
1r
0q
1m
1O
0N
0M
0L
0K
1?
0@
0A
0B
0C
0{
0z
0y
1x
0v
0t
0r
1|
1{
1z
0|
#490000
0!
0k
0l
1D
#495000
1!
1k
1l
0D
1p!
1q
0m
1K
1C
1r
#500000
0!
0k
0l
1D
#505000
1!
1k
1l
0D
1o!
0p!
0s
0r
0q
1m
1L
0K
1B
0C
1t
1s
1r
0t
#510000
0!
0k
0l
1D
#515000
1!
1k
1l
0D
1p!
1q
0m
1K
1C
0s
0r
1t
#520000
0!
0k
0l
1D
#525000
1!
1k
1l
0D
1n!
0o!
0p!
1u
0t
1s
1r
0q
1m
1M
0L
0K
1A
0B
0C
1v
0u
1t
0r
0v
#530000
0!
0k
0l
1D
#535000
1!
1k
1l
0D
1p!
1q
0m
1K
1C
1r
#540000
0!
0k
0l
1D
#545000
1!
1k
1l
0D
1o!
0p!
0s
0r
0q
1m
1L
0K
1B
0C
1u
0t
1s
1r
1v
0u
1t
0v
#550000
0!
0k
0l
1D
#555000
1!
1k
1l
0D
1p!
1q
0m
1K
1C
0s
0r
1u
0t
1v
#560000
0!
0k
0l
1D
#565000
1!
1k
1l
0D
1m!
0n!
0o!
0p!
0w
0v
0u
1t
1s
1r
0q
1m
1N
0M
0L
0K
1@
0A
0B
0C
1y
0x
1w
1v
0t
0r
0{
0z
0y
1x
1|
1{
1z
0|
#570000
0!
0k
0l
1D
#575000
1!
1k
1l
0D
1p!
1q
0m
1K
1C
1r
#580000
0!
0k
0l
1D
#585000
1!
1k
1l
0D
1o!
0p!
0s
0r
0q
1m
1L
0K
1B
0C
1t
1s
1r
0t
#590000
0!
0k
0l
1D
#595000
1!
1k
1l
0D
1p!
1q
0m
1K
1C
0s
0r
1t
#600000
0!
0k
0l
1D
#605000
1!
1k
1l
0D
1n!
0o!
0p!
1u
0t
1s
1r
0q
1m
1M
0L
0K
1A
0B
0C
0w
0v
0u
1t
0r
1y
0x
1w
1v
0{
0z
0y
1x
1|
1{
1z
0|
#610000
0!
0k
0l
1D
#615000
1!
1k
1l
0D
1p!
1q
0m
1K
1C
1r
#620000
0!
0k
0l
1D
#625000
1!
1k
1l
0D
1o!
0p!
0s
0r
0q
1m
1L
0K
1B
0C
1u
0t
1s
1r
0w
0v
0u
1t
1y
0x
1w
1v
0{
0z
0y
1x
1|
1{
1z
0|
#630000
0!
0k
0l
1D
#635000
1!
1k
1l
0D
1p!
1q
0m
1K
1C
0s
0r
1u
0t
0w
0v
1y
0x
0{
0z
1|
#640000
0!
0k
0l
1D
#645000
1!
1k
1l
0D
1j!
0k!
0l!
0m!
0n!
0o!
0p!
1}
0|
1{
1z
0y
1x
1w
1v
0u
1t
1s
1r
0q
1m
1Q
0P
0O
0N
0M
0L
0K
1=
0>
0?
0@
0A
0B
0C
1~
0}
1|
0z
0x
0v
0t
0r
0~
#650000
0!
0k
0l
1D
#655000
1!
1k
1l
0D
1p!
1q
0m
1K
1C
1r
#660000
0!
0k
0l
1D
#665000
1!
1k
1l
0D
1o!
0p!
0s
0r
0q
1m
1L
0K
1B
0C
1t
1s
1r
0t
#670000
0!
0k
0l
1D
#675000
1!
1k
1l
0D
1p!
1q
0m
1K
1C
0s
0r
1t
#680000
0!
0k
0l
1D
#685000
1!
1k
1l
0D
1n!
0o!
0p!
1u
0t
1s
1r
0q
1m
1M
0L
0K
1A
0B
0C
1v
0u
1t
0r
0v
#690000
0!
0k
0l
1D
#695000
1!
1k
1l
0D
1p!
1q
0m
1K
1C
1r
#700000
0!
0k
0l
1D
#705000
1!
1k
1l
0D
1o!
0p!
0s
0r
0q
1m
1L
0K
1B
0C
1u
0t
1s
1r
1v
0u
1t
0v
#710000
0!
0k
0l
1D
#715000
1!
1k
1l
0D
1p!
1q
0m
1K
1C
0s
0r
1u
0t
1v
#720000
0!
0k
0l
1D
#725000
1!
1k
1l
0D
1m!
0n!
0o!
0p!
0w
0v
0u
1t
1s
1r
0q
1m
1N
0M
0L
0K
1@
0A
0B
0C
1x
1w
1v
0t
0r
0x
#730000
0!
0k
0l
1D
#735000
1!
1k
1l
0D
1p!
1q
0m
1K
1C
1r
#740000
0!
0k
0l
1D
#745000
1!
1k
1l
0D
1o!
0p!
0s
0r
0q
1m
1L
0K
1B
0C
1t
1s
1r
0t
#750000
0!
0k
0l
1D
#755000
1!
1k
1l
0D
1p!
1q
0m
1K
1C
0s
0r
1t
#760000
0!
0k
0l
1D
#765000
1!
1k
1l
0D
1n!
0o!
0p!
1u
0t
1s
1r
0q
1m
1M
0L
0K
1A
0B
0C
0w
0v
0u
1t
0r
1x
1w
1v
0x
#770000
0!
0k
0l
1D
#775000
1!
1k
1l
0D
1p!
1q
0m
1K
1C
1r
#780000
0!
0k
0l
1D
#785000
1!
1k
1l
0D
1o!
0p!
0s
0r
0q
1m
1L
0K
1B
0C
1u
0t
1s
1r
0w
0v
0u
1t
1x
1w
1v
0x
#790000
0!
0k
0l
1D
#795000
1!
1k
1l
0D
1p!
1q
0m
1K
1C
0s
0r
1u
0t
0w
0v
1x
#800000
0!
0k
0l
1D
#805000
1!
1k
1l
0D
1l!
0m!
0n!
0o!
0p!
1y
0x
1w
1v
0u
1t
1s
1r
0q
1m
1O
0N
0M
0L
0K
1?
0@
0A
0B
0C
1z
0y
1x
0v
0t
0r
0z
#810000
0!
0k
0l
1D
#815000
1!
1k
1l
0D
1p!
1q
0m
1K
1C
1r
#820000
0!
0k
0l
1D
#825000
1!
1k
1l
0D
1o!
0p!
0s
0r
0q
1m
1L
0K
1B
0C
1t
1s
1r
0t
#830000
0!
0k
0l
1D
#835000
1!
1k
1l
0D
1p!
1q
0m
1K
1C
0s
0r
1t
#840000
0!
0k
0l
1D
#845000
1!
1k
1l
0D
1n!
0o!
0p!
1u
0t
1s
1r
0q
1m
1M
0L
0K
1A
0B
0C
1v
0u
1t
0r
0v
#850000
0!
0k
0l
1D
#855000
1!
1k
1l
0D
1p!
1q
0m
1K
1C
1r
#860000
0!
0k
0l
1D
#865000
1!
1k
1l
0D
1o!
0p!
0s
0r
0q
1m
1L
0K
1B
0C
1u
0t
1s
1r
1v
0u
1t
0v
#870000
0!
0k
0l
1D
#875000
1!
1k
1l
0D
1p!
1q
0m
1K
1C
0s
0r
1u
0t
1v
#880000
0!
0k
0l
1D
#885000
1!
1k
1l
0D
1m!
0n!
0o!
0p!
0w
0v
0u
1t
1s
1r
0q
1m
1N
0M
0L
0K
1@
0A
0B
0C
1y
0x
1w
1v
0t
0r
1z
0y
1x
0z
#890000
0!
0k
0l
1D
#895000
1!
1k
1l
0D
1p!
1q
0m
1K
1C
1r
#900000
0!
0k
0l
1D
#905000
1!
1k
1l
0D
1o!
0p!
0s
0r
0q
1m
1L
0K
1B
0C
1t
1s
1r
0t
#910000
0!
0k
0l
1D
#915000
1!
1k
1l
0D
1p!
1q
0m
1K
1C
0s
0r
1t
#920000
0!
0k
0l
1D
#925000
1!
1k
1l
0D
1n!
0o!
0p!
1u
0t
1s
1r
0q
1m
1M
0L
0K
1A
0B
0C
0w
0v
0u
1t
0r
1y
0x
1w
1v
1z
0y
1x
0z
#930000
0!
0k
0l
1D
#935000
1!
1k
1l
0D
1p!
1q
0m
1K
1C
1r
#940000
0!
0k
0l
1D
#945000
1!
1k
1l
0D
1o!
0p!
0s
0r
0q
1m
1L
0K
1B
0C
1u
0t
1s
1r
0w
0v
0u
1t
1y
0x
1w
1v
1z
0y
1x
0z
#950000
0!
0k
0l
1D
#955000
1!
1k
1l
0D
1p!
1q
0m
1K
1C
0s
0r
1u
0t
0w
0v
1y
0x
1z
#960000
0!
0k
0l
1D
#965000
1!
1k
1l
0D
1k!
0l!
0m!
0n!
0o!
0p!
0{
0z
0y
1x
1w
1v
0u
1t
1s
1r
0q
1m
1P
0O
0N
0M
0L
0K
1>
0?
0@
0A
0B
0C
1}
0|
1{
1z
0x
0v
0t
0r
1~
0}
1|
0~
#970000
0!
0k
0l
1D
#975000
1!
1k
1l
0D
1p!
1q
0m
1K
1C
1r
#980000
0!
0k
0l
1D
#985000
1!
1k
1l
0D
1o!
0p!
0s
0r
0q
1m
1L
0K
1B
0C
1t
1s
1r
0t
#990000
0!
0k
0l
1D
#995000
1!
1k
1l
0D
1p!
1q
0m
1K
1C
0s
0r
1t
