FPGA-based Fixed-Point NPU for MNIST/Neural/simulation/qsim/Neural.msim.vcd
$comment
	File created using the following command:
		vcd file Neural.msim.vcd -direction
$end
$date
	Tue Oct 07 11:31:45 2025
$end
$version
	ModelSim Version 10.1d
$end
$timescale
	1ps
$end
$scope module sig_rom_vhd_vec_tst $end
$var wire 1 ! clk $end
$var wire 1 " output [15] $end
$var wire 1 # output [14] $end
$var wire 1 $ output [13] $end
$var wire 1 % output [12] $end
$var wire 1 & output [11] $end
$var wire 1 ' output [10] $end
$var wire 1 ( output [9] $end
$var wire 1 ) output [8] $end
$var wire 1 * output [7] $end
$var wire 1 + output [6] $end
$var wire 1 , output [5] $end
$var wire 1 - output [4] $end
$var wire 1 . output [3] $end
$var wire 1 / output [2] $end
$var wire 1 0 output [1] $end
$var wire 1 1 output [0] $end
$var wire 1 2 x [4] $end
$var wire 1 3 x [3] $end
$var wire 1 4 x [2] $end
$var wire 1 5 x [1] $end
$var wire 1 6 x [0] $end
$scope module i1 $end
$var wire 1 7 gnd $end
$var wire 1 8 vcc $end
$var wire 1 9 unknown $end
$var wire 1 : devoe $end
$var wire 1 ; devclrn $end
$var wire 1 < devpor $end
$var wire 1 = ww_devoe $end
$var wire 1 > ww_devclrn $end
$var wire 1 ? ww_devpor $end
$var wire 1 @ ww_clk $end
$var wire 1 A ww_x [4] $end
$var wire 1 B ww_x [3] $end
$var wire 1 C ww_x [2] $end
$var wire 1 D ww_x [1] $end
$var wire 1 E ww_x [0] $end
$var wire 1 F ww_output [15] $end
$var wire 1 G ww_output [14] $end
$var wire 1 H ww_output [13] $end
$var wire 1 I ww_output [12] $end
$var wire 1 J ww_output [11] $end
$var wire 1 K ww_output [10] $end
$var wire 1 L ww_output [9] $end
$var wire 1 M ww_output [8] $end
$var wire 1 N ww_output [7] $end
$var wire 1 O ww_output [6] $end
$var wire 1 P ww_output [5] $end
$var wire 1 Q ww_output [4] $end
$var wire 1 R ww_output [3] $end
$var wire 1 S ww_output [2] $end
$var wire 1 T ww_output [1] $end
$var wire 1 U ww_output [0] $end
$var wire 1 V \clk~input_o\ $end
$var wire 1 W \output[0]~output_o\ $end
$var wire 1 X \output[1]~output_o\ $end
$var wire 1 Y \output[2]~output_o\ $end
$var wire 1 Z \output[3]~output_o\ $end
$var wire 1 [ \output[4]~output_o\ $end
$var wire 1 \ \output[5]~output_o\ $end
$var wire 1 ] \output[6]~output_o\ $end
$var wire 1 ^ \output[7]~output_o\ $end
$var wire 1 _ \output[8]~output_o\ $end
$var wire 1 ` \output[9]~output_o\ $end
$var wire 1 a \output[10]~output_o\ $end
$var wire 1 b \output[11]~output_o\ $end
$var wire 1 c \output[12]~output_o\ $end
$var wire 1 d \output[13]~output_o\ $end
$var wire 1 e \output[14]~output_o\ $end
$var wire 1 f \output[15]~output_o\ $end
$var wire 1 g \x[2]~input_o\ $end
$var wire 1 h \x[4]~input_o\ $end
$var wire 1 i \x[0]~input_o\ $end
$var wire 1 j \x[1]~input_o\ $end
$var wire 1 k \x[3]~input_o\ $end
$var wire 1 l \mem_s~23_combout\ $end
$var wire 1 m \mem_s~24_combout\ $end
$var wire 1 n \mem_s~21_combout\ $end
$var wire 1 o \mem_s~22_combout\ $end
$var wire 1 p \mem_s~1_combout\ $end
$var wire 1 q \mem_s~0_combout\ $end
$var wire 1 r \mem_s~2_combout\ $end
$var wire 1 s \mem_s~19_combout\ $end
$var wire 1 t \mem_s~20_combout\ $end
$var wire 1 u \mem_s~3_combout\ $end
$var wire 1 v \mem_s~4_combout\ $end
$var wire 1 w \mem_s~5_combout\ $end
$var wire 1 x \mem_s~6_combout\ $end
$var wire 1 y \mem_s~7_combout\ $end
$var wire 1 z \mem_s~8_combout\ $end
$var wire 1 { \mem_s~9_combout\ $end
$var wire 1 | \mem_s~10_combout\ $end
$var wire 1 } \mem_s~11_combout\ $end
$var wire 1 ~ \mem_s~12_combout\ $end
$var wire 1 !! \mem_s~13_combout\ $end
$var wire 1 "! \mem_s~14_combout\ $end
$var wire 1 #! \mem_s~15_combout\ $end
$var wire 1 $! \mem_s~16_combout\ $end
$var wire 1 %! \mem_s~17_combout\ $end
$var wire 1 &! \mem_s~18_combout\ $end
$var wire 1 '! \ALT_INV_mem_s~18_combout\ $end
$var wire 1 (! \ALT_INV_x[4]~input_o\ $end
$upscope $end
$upscope $end
$enddefinitions $end
#0
$dumpvars
0!
07
18
x9
1:
1;
1<
1=
1>
1?
0@
0V
0W
0X
0Y
0Z
0[
0\
0]
0^
0_
0`
0a
0b
0c
0d
0e
0f
0g
1h
0i
0j
0k
0l
0m
0n
0o
0p
0q
0r
1s
0t
0u
0v
0w
1x
0y
0z
0{
0|
0}
0~
0!!
0"!
0#!
0$!
0%!
1&!
0'!
0(!
12
03
04
05
06
0"
0#
0$
0%
0&
0'
0(
0)
0*
0+
0,
0-
0.
0/
00
01
1A
0B
0C
0D
0E
0F
0G
0H
0I
0J
0K
0L
0M
0N
0O
0P
0Q
0R
0S
0T
0U
$end
#5000
1!
1@
1V
#10000
0!
0@
0V
#15000
1!
1@
1V
#20000
0!
02
0@
0A
0h
0V
1(!
0s
1e
1G
1#
#25000
1!
1@
1V
#30000
0!
13
14
15
16
0@
1E
1D
1C
1B
1k
1g
1j
1i
0V
1!!
1y
0&!
1"!
1l
1m
1n
1o
1p
1q
1t
1v
1w
0x
1{
1|
1#!
1$!
1'!
1%!
1}
1r
1`
1]
1[
1Z
1X
1W
1\
1d
1_
1b
1c
1L
1O
1Q
1R
1T
1U
1P
1H
1M
1J
1Y
1^
1a
1I
11
10
1.
1-
1,
1+
1)
1(
1&
1$
1S
1N
1K
1%
1/
1*
1'
#35000
1!
1@
1V
#40000
0!
0@
0V
#45000
1!
1@
1V
#50000
0!
0@
0V
#55000
1!
1@
1V
#60000
0!
03
04
05
06
0@
0E
0D
0C
0B
0k
0g
0j
0i
0V
0"!
0l
0n
0p
0q
0t
0v
0w
1x
0{
0|
0$!
0%!
0}
0!!
1&!
0y
0r
0o
0m
0#!
0'!
0]
0[
0Z
0O
0Q
0R
0`
0W
0X
0Y
0\
0d
0_
0b
0^
0a
0.
0-
0+
0c
0L
0U
0T
0S
0P
0H
0M
0J
0N
0K
0I
01
00
0/
0,
0*
0)
0(
0'
0&
0$
0%
#65000
1!
1@
1V
#70000
0!
0@
0V
#75000
1!
1@
1V
#80000
0!
0@
0V
#85000
1!
1@
1V
#90000
0!
0@
0V
#95000
1!
1@
1V
#100000
0!
0@
0V
#105000
1!
1@
1V
#110000
0!
0@
0V
#115000
1!
1@
1V
#120000
0!
0@
0V
#125000
1!
1@
1V
#130000
0!
0@
0V
#135000
1!
1@
1V
#140000
0!
0@
0V
#145000
1!
1@
1V
#150000
0!
0@
0V
#155000
1!
1@
1V
#160000
0!
0@
0V
#165000
1!
1@
1V
#170000
0!
0@
0V
#175000
1!
1@
1V
#180000
0!
0@
0V
#185000
1!
1@
1V
#190000
0!
0@
0V
#195000
1!
1@
1V
#200000
0!
0@
0V
#205000
1!
1@
1V
#210000
0!
0@
0V
#215000
1!
1@
1V
#220000
0!
0@
0V
#225000
1!
1@
1V
#230000
0!
0@
0V
#235000
1!
1@
1V
#240000
0!
0@
0V
#245000
1!
1@
1V
#250000
0!
0@
0V
#255000
1!
1@
1V
#260000
0!
0@
0V
#265000
1!
1@
1V
#270000
0!
0@
0V
#275000
1!
1@
1V
#280000
0!
0@
0V
#285000
1!
1@
1V
#290000
0!
0@
0V
#295000
1!
1@
1V
#300000
0!
0@
0V
#305000
1!
1@
1V
#310000
0!
0@
0V
#315000
1!
1@
1V
#320000
0!
0@
0V
#325000
1!
1@
1V
#330000
0!
0@
0V
#335000
1!
1@
1V
#340000
0!
0@
0V
#345000
1!
1@
1V
#350000
0!
0@
0V
#355000
1!
1@
1V
#360000
0!
0@
0V
#365000
1!
1@
1V
#370000
0!
0@
0V
#375000
1!
1@
1V
#380000
0!
0@
0V
#385000
1!
1@
1V
#390000
0!
0@
0V
#395000
1!
1@
1V
#400000
0!
0@
0V
#405000
1!
1@
1V
#410000
0!
0@
0V
#415000
1!
1@
1V
#420000
0!
0@
0V
#425000
1!
1@
1V
#430000
0!
0@
0V
#435000
1!
1@
1V
#440000
0!
0@
0V
#445000
1!
1@
1V
#450000
0!
0@
0V
#455000
1!
1@
1V
#460000
0!
0@
0V
#465000
1!
1@
1V
#470000
0!
0@
0V
#475000
1!
1@
1V
#480000
0!
0@
0V
#485000
1!
1@
1V
#490000
0!
0@
0V
#495000
1!
1@
1V
#500000
0!
0@
0V
#505000
1!
1@
1V
#510000
0!
0@
0V
#515000
1!
1@
1V
#520000
0!
0@
0V
#525000
1!
1@
1V
#530000
0!
0@
0V
#535000
1!
1@
1V
#540000
0!
0@
0V
#545000
1!
1@
1V
#550000
0!
0@
0V
#555000
1!
1@
1V
#560000
0!
0@
0V
#565000
1!
1@
1V
#570000
0!
0@
0V
#575000
1!
1@
1V
#580000
0!
0@
0V
#585000
1!
1@
1V
#590000
0!
0@
0V
#595000
1!
1@
1V
#600000
0!
0@
0V
#605000
1!
1@
1V
#610000
0!
0@
0V
#615000
1!
1@
1V
#620000
0!
0@
0V
#625000
1!
1@
1V
#630000
0!
0@
0V
#635000
1!
1@
1V
#640000
0!
0@
0V
#645000
1!
1@
1V
#650000
0!
0@
0V
#655000
1!
1@
1V
#660000
0!
0@
0V
#665000
1!
1@
1V
#670000
0!
0@
0V
#675000
1!
1@
1V
#680000
0!
0@
0V
#685000
1!
1@
1V
#690000
0!
0@
0V
#695000
1!
1@
1V
#700000
0!
0@
0V
#705000
1!
1@
1V
#710000
0!
0@
0V
#715000
1!
1@
1V
#720000
0!
0@
0V
#725000
1!
1@
1V
#730000
0!
0@
0V
#735000
1!
1@
1V
#740000
0!
0@
0V
#745000
1!
1@
1V
#750000
0!
0@
0V
#755000
1!
1@
1V
#760000
0!
0@
0V
#765000
1!
1@
1V
#770000
0!
0@
0V
#775000
1!
1@
1V
#780000
0!
0@
0V
#785000
1!
1@
1V
#790000
0!
0@
0V
#795000
1!
1@
1V
#800000
0!
0@
0V
#805000
1!
1@
1V
#810000
0!
0@
0V
#815000
1!
1@
1V
#820000
0!
0@
0V
#825000
1!
1@
1V
#830000
0!
0@
0V
#835000
1!
1@
1V
#840000
0!
0@
0V
#845000
1!
1@
1V
#850000
0!
0@
0V
#855000
1!
1@
1V
#860000
0!
0@
0V
#865000
1!
1@
1V
#870000
0!
0@
0V
#875000
1!
1@
1V
#880000
0!
0@
0V
#885000
1!
1@
1V
#890000
0!
0@
0V
#895000
1!
1@
1V
#900000
0!
0@
0V
#905000
1!
1@
1V
#910000
0!
0@
0V
#915000
1!
1@
1V
#920000
0!
0@
0V
#925000
1!
1@
1V
#930000
0!
0@
0V
#935000
1!
1@
1V
#940000
0!
0@
0V
#945000
1!
1@
1V
#950000
0!
0@
0V
#955000
1!
1@
1V
#960000
0!
0@
0V
#965000
1!
1@
1V
#970000
0!
0@
0V
#975000
1!
1@
1V
#980000
0!
0@
0V
#985000
1!
1@
1V
#990000
0!
0@
0V
#995000
1!
1@
1V
